<?xml version="1.0" standalone="no"?>
<!DOCTYPE svg PUBLIC "-//W3C//DTD SVG 20010904//EN"
 "http://www.w3.org/TR/2001/REC-SVG-20010904/DTD/svg10.dtd">
<svg version="1.0" xmlns="http://www.w3.org/2000/svg"
 width="310.000000pt" height="310.000000pt" viewBox="0 0 310.000000 310.000000"
 preserveAspectRatio="xMidYMid meet">
<metadata>
Created by potrace 1.11, written by Peter Selinger 2001-2013
</metadata>
<g transform="translate(0.000000,310.000000) scale(0.100000,-0.100000)"
fill="#000000" stroke="none">
<path d="M230 3093 c-106 -39 -176 -101 -208 -184 -21 -54 -21 -63 -21 -1359
0 -1281 0 -1306 20 -1357 25 -64 93 -137 157 -166 l47 -22 1312 -2 1311 -3 56
21 c75 29 129 78 163 147 l28 57 2 1315 c2 1300 2 1316 -18 1368 -27 70 -102
144 -171 171 -52 20 -71 20 -1358 20 -718 -1 -1312 -3 -1320 -6z"/>
</g>
</svg>
