<?xml version="1.0" encoding="utf-8"?>
<!-- Generator: Adobe Illustrator 19.2.0, SVG Export Plug-In . SVG Version: 6.00 Build 0)  -->
<svg version="1.1" id="Layer_1" xmlns="http://www.w3.org/2000/svg" xmlns:xlink="http://www.w3.org/1999/xlink" x="0px" y="0px"
	 viewBox="0 0 36 22.3" style="enable-background:new 0 0 36 22.3;" xml:space="preserve">
<style type="text/css">
	.st0{fill:#F79F1A;}
	.st1{fill:#EA001B;}
	.st2{fill:#FF5F01;}
</style>
<title></title>
<desc></desc>
<g id="Page-1">
	<g id="Social_icons" transform="translate(-422.000000, -954.000000)">
		<g id="Mastercard" transform="translate(422.000000, 954.000000)">
			<g id="g3110" transform="translate(12.000000, 19.000000)">
				<path id="path2997" class="st0" d="M24-7.9c0,6.2-5,11.1-11.1,11.1S1.7-1.7,1.7-7.9S6.7-19,12.8-19S24-14,24-7.9L24-7.9z"/>
				<path id="path2995" class="st1" d="M10.2-7.9c0,6.2-5,11.1-11.1,11.1S-12-1.7-12-7.9S-7-19-0.9-19S10.2-14,10.2-7.9L10.2-7.9z"
					/>
				<path id="path2999" class="st2" d="M6-16.6c-2.6,2-4.3,5.2-4.3,8.8S3.4-1.1,6,0.9c2.6-2,4.3-5.2,4.3-8.8S8.6-14.6,6-16.6L6-16.6
					z"/>
			</g>
		</g>
	</g>
</g>
</svg>
