<?xml version="1.0" encoding="utf-8"?>
<!-- Generator: Adobe Illustrator 19.2.0, SVG Export Plug-In . SVG Version: 6.00 Build 0)  -->
<svg version="1.1" id="Layer_1" xmlns="http://www.w3.org/2000/svg" xmlns:xlink="http://www.w3.org/1999/xlink" x="0px" y="0px"
	 viewBox="0 0 64 64" style="enable-background:new 0 0 64 64;" xml:space="preserve">
<style type="text/css">
	.st0{fill:#E7E7E7;}
	.st1{fill:#7F7E7E;}
</style>
<circle class="st0" cx="32" cy="32" r="32"/>
<path class="st1" d="M47.8,50.6c-2.1,0.1-6.4-0.9-8.1-1.3c-0.3-0.1-0.6-0.4-0.6-0.7l-0.2-6.1c2-2.3,3.3-4.9,3.7-6.7
	c0.1-0.3,0.1-0.5,0.2-0.8c1-0.2,2.3-1.3,2.7-2.6c0.4-1.4,0.2-2.6-0.4-3.2c-0.2-0.2-0.4-0.3-0.8-0.4c0.6-2.9,0.8-6.5,0.3-9.1
	c0,0,0-0.1,0-0.1c0-0.2-0.1-0.3-0.1-0.5c-0.7-3.4-2.1-5.6-4.1-6.3c-0.2-0.1-0.4-0.1-0.6-0.2c0,0.1,0,0.1,0.1,0.2c0,0,0,0.1,0,0.1
	c0,0.1,0.1,0.2,0.1,0.3c0,0,0,0.1,0,0.1c0.1,0.2,0.1,0.4,0.2,0.6c0.1,0.2,0.1,0.5,0.2,0.7c0.3,1.2,0.6,2.3,0.8,3.5
	c0.1,0.3,0.1,0.7,0.1,1c0.1,0.9,0.2,1.7,0.2,2.6c0,0.4,0,0.7,0,1.1c0,0,0,0,0,0.1c0,0.1,0,0.1,0,0.2c0,0.1,0,0.2,0,0.3
	c0,0,0,0.1,0,0.1c0,0.2,0,0.4,0,0.6c1.8,4.7,1.3,8.1,1.3,8.1c0,0,0,0,0,0.1c-0.2,1.1-0.4,2.2-0.7,3.3c-0.3,1.6-1.5,3.9-3.2,6
	c-0.2,0.2-0.3,0.4-0.5,0.6c-0.8,1-1.8,1.9-2.8,2.7c-0.4,0.3-0.9,0.5-1.4,0.5h-4.4c-0.5,0-1-0.2-1.4-0.5c-1-0.8-2-1.7-2.8-2.6
	c-0.2-0.2-0.3-0.4-0.5-0.6c-1.7-2.1-2.9-4.4-3.2-6c-0.1-0.3-0.1-0.6-0.2-1l0-0.2c0,0,0,0,0,0c-0.1-0.6-0.2-1.2-0.4-1.8
	c0-0.1,0.1-0.1,0.1-0.2c0-0.1-0.4-6.3,0.5-10.2c0.6,0.7,1.4,1.3,2.3,1.8c1.9,1.1,4.2,1.5,6.5,1.5c4.2,0,8.5-1.3,10.6-2.1
	c0,0,0,0,0,0c0-0.1,0-0.2,0-0.3c0-0.1,0-0.2,0-0.3c0,0,0-0.1,0-0.1c0-0.3,0-0.5-0.1-0.8c0-0.1,0-0.2,0-0.3c-0.1-0.9-0.2-1.7-0.4-2.6
	c0-0.3-0.1-0.6-0.1-0.9c-0.2-1.2-0.4-2.3-0.6-3.5l-0.3-1.3l-0.1-0.3l0-0.1l0-0.1l-0.1-0.3c0,0,0,0,0,0c0,0,0,0,0,0
	c-1.5-1.3-3.6-2.2-6.1-2.5c-0.4-0.1-0.7-0.1-1.2-0.1c0,0-0.1,0-0.1,0c0,0,0,0,0,0c-0.9-0.2-1.9-0.3-3.1-0.2c-0.1,0-0.2,0.1-0.2,0.2
	c0,0.1,0.1,0.2,0.2,0.3c0,0,0,0,0,0c0,0-0.1,0-0.1,0c-1.1-0.1-2.3,0.1-3.6,0.5c-0.1,0-0.2,0.2-0.2,0.3c0,0.1,0,0.1,0.1,0.1
	c-0.5,0.1-1,0.3-1.5,0.5c-0.1,0.1-0.2,0.2-0.1,0.3c0,0.1,0.1,0.1,0.1,0.1c-0.6,0.2-1.2,0.5-2,1c-0.1,0.1-0.1,0.2-0.1,0.3
	c0,0,0,0.1,0.1,0.1c-0.6,0.3-1.1,0.7-1.7,1.2c-0.1,0.1-0.1,0.2-0.1,0.3c0.1,0.1,0.1,0.2,0.6,0.2c0,0-0.1,0.1-0.1,0.1
	c-0.6,0.4-1.3,1.1-1.8,2.1c0,0.1,0,0.2,0,0.2c0,0.1,0.1,0.1,0.2,0.1c0,0,0.4,0.1,0.6,0.4c-0.6,1.3-0.9,2.8-1.1,4.5
	c-0.1,1.8,0.1,3.8,0.8,6.2c-0.2,0.1-0.3,0.2-0.4,0.3c-0.6,0.6-0.8,1.8-0.4,3.2c0.3,1.3,1.6,2.4,2.7,2.6c0.1,0.3,0.1,0.5,0.2,0.8
	c0.4,1.8,1.8,4.4,3.7,6.7l-0.2,6c0,0.3-0.2,0.6-0.6,0.7c-1.7,0.4-6,1.4-8.1,1.3l0,0.5c0.1,0,0.3,0,0.4,0c2.3,0,6.2-0.9,7.9-1.3
	c0.6-0.1,1-0.6,1-1.2l0.2-5.5c0.8,0.8,1.6,1.6,2.5,2.3c0.5,0.4,1.1,0.6,1.7,0.6h4.4c0.6,0,1.2-0.2,1.7-0.6c0.9-0.7,1.8-1.5,2.5-2.3
	l0.2,5.5c0,0.6,0.4,1.1,1,1.2c1.7,0.4,5.6,1.3,7.9,1.3c0.1,0,0.3,0,0.4,0L47.8,50.6z M43.3,32.4l0.6-2.1c0.1-0.3,0.2-0.6,0.2-0.9
	c0.2,0,0.4,0.1,0.5,0.3c0.5,0.5,0.6,1.5,0.3,2.7c-0.3,1.1-1.3,1.9-2,2.2C43,33.8,43.2,33.1,43.3,32.4z M19.1,32.3
	c-0.3-1.2-0.2-2.2,0.3-2.7c0.1-0.1,0.1-0.1,0.2-0.1c0.2,0.6,0.5,1.2,0.7,1.9l0.4,1c0.1,0.7,0.3,1.4,0.4,2.1
	C20.3,34.2,19.3,33.4,19.1,32.3z"/>
</svg>
