<?xml version="1.0" encoding="utf-8"?>
<!-- Generator: Adobe Illustrator 17.0.0, SVG Export Plug-In . SVG Version: 6.00 Build 0)  -->
<!DOCTYPE svg PUBLIC "-//W3C//DTD SVG 1.1//EN" "http://www.w3.org/Graphics/SVG/1.1/DTD/svg11.dtd">
<svg version="1.1" id="Layer_1" xmlns="http://www.w3.org/2000/svg" xmlns:xlink="http://www.w3.org/1999/xlink" x="0px" y="0px"
	 width="26.727px" height="19.955px" viewBox="0 0 26.727 19.955" enable-background="new 0 0 26.727 19.955" xml:space="preserve">
<circle cx="11.352" cy="18.17" r="1.785"/>
<circle cx="18.553" cy="18.17" r="1.785"/>
<path d="M26.727,2.903H6.329l-1.009-2.4L5.165,0H4.602h-4.603v1.529h4.067l5.043,13.482l0.159,0.504h0.559h11.135l0.538-1.529
	H10.362l-0.887-2.28h14.021L26.727,2.903z"/>
</svg>
