<?xml version="1.0" encoding="utf-8"?>
<!-- Generator: Adobe Illustrator 19.2.0, SVG Export Plug-In . SVG Version: 6.00 Build 0)  -->
<svg version="1.1" id="Layer_1" xmlns="http://www.w3.org/2000/svg" xmlns:xlink="http://www.w3.org/1999/xlink" x="0px" y="0px"
	 viewBox="0 0 81.7 123.4" style="enable-background:new 0 0 81.7 123.4;" xml:space="preserve">
<style type="text/css">
	.st0{fill:#FFFFFF;}
</style>
<g>
	<path class="st0" d="M78.4,54.5L15.3,2.1c-2.9-2.3-6.6-2.9-9.9-1.2C2.1,2.3,0,5.7,0,9.4v104.7c0,3.7,2.1,7,5.4,8.5
		c1.2,0.6,2.7,0.8,3.9,0.8c2.1,0,4.3-0.8,6-2.1l63.1-52.4c2.1-1.9,3.3-4.3,3.3-7.2C81.7,59,80.5,56.3,78.4,54.5z"/>
</g>
</svg>
