<?xml version="1.0" encoding="utf-8"?>
<!-- Generator: Adobe Illustrator 21.0.2, SVG Export Plug-In . SVG Version: 6.00 Build 0)  -->
<svg version="1.1" id="Layer_1" xmlns="http://www.w3.org/2000/svg" xmlns:xlink="http://www.w3.org/1999/xlink" x="0px" y="0px"
	 viewBox="235.2 61.9 371.5 352.4" style="enable-background:new 235.2 61.9 371.5 352.4;" xml:space="preserve">
<g transform="translate(0,-952.36218)">
	<path d="M473.3,1028.6c0.1-7.5,6.9-14.4,14.5-14.3h104.6c7.5,0,14.3,6.8,14.3,14.3v323.8c0,7.5-6.8,14.3-14.3,14.3H487.8
		c-7.5,0.1-14.5-6.7-14.5-14.3c0-7.5,6.9-14.4,14.5-14.3h90.4v-295.3h-90.4C480.2,1043,473.3,1036.2,473.3,1028.6L473.3,1028.6z"/>
	<path d="M540,1190.4c-0.1-3.4-1.5-7.3-3.9-9.8l-76.2-81c-5.2-4.6-15.1-6.6-20.8-1.2c-5.7,5.3-5.5,15.5,0.1,20.8l53.6,56.9H249.5
		c-7.9,0-14.3,6.4-14.3,14.3c0,7.9,6.4,14.3,14.3,14.3h243.3l-53.6,56.9c-4.9,4.9-5.8,15.5-0.1,20.8c5.6,5.3,15.9,3.6,20.8-1.2
		l76.2-81C538.7,1197.5,540,1194.3,540,1190.4L540,1190.4z"/>
</g>
</svg>
