<?xml version="1.0" encoding="utf-8"?>
<!-- Generator: Adobe Illustrator 21.0.2, SVG Export Plug-In . SVG Version: 6.00 Build 0)  -->
<svg version="1.1" id="Layer_1" xmlns="http://www.w3.org/2000/svg" xmlns:xlink="http://www.w3.org/1999/xlink" x="0px" y="0px"
	 viewBox="236.8 113.5 368.3 249.2" style="enable-background:new 236.8 113.5 368.3 249.2;" xml:space="preserve">
<path d="M359.8,362.7c-2.9,0-5.9-1.1-8.2-3.2L240.5,254.7c-4.8-4.5-5-12-0.5-16.8c4.5-4.8,12-5,16.8-0.5l102.9,97l225.2-217.5
	c4.7-4.6,12.3-4.4,16.8,0.3c4.6,4.7,4.4,12.3-0.3,16.8L368.1,359.4C365.8,361.6,362.8,362.7,359.8,362.7z"/>
</svg>
