<?xml version="1.0" encoding="utf-8"?>
<!-- Generator: Adobe Illustrator 17.0.0, SVG Export Plug-In . SVG Version: 6.00 Build 0)  -->
<!DOCTYPE svg PUBLIC "-//W3C//DTD SVG 1.1//EN" "http://www.w3.org/Graphics/SVG/1.1/DTD/svg11.dtd">
<svg version="1.1" id="Layer_1" xmlns="http://www.w3.org/2000/svg" xmlns:xlink="http://www.w3.org/1999/xlink" x="0px" y="0px"
	 width="341.453px" height="389.075px" viewBox="249.981 43.813 341.453 389.075"
	 enable-background="new 249.981 43.813 341.453 389.075" xml:space="preserve">
<path d="M249.981,43.813v389.075h341.453V118.58l-74.291-74.767H249.981z M520,60.004l56.671,56.671H520V60.004z M259.505,422.887
	V53.337h250.97v72.862h71.91v296.688H259.505z"/>
<path d="M384.752,213.825H372.37l-17.144,22.859c-2.381,3.334-4.762,6.667-6.667,9.524c-1.429-2.381-3.81-6.191-6.667-10.477
	L325.7,213.825h-13.334l29.05,40.955l-33.336,44.765h13.81l21.43-30.002c0.952-0.952,2.381-3.334,4.286-6.667
	c1.429,1.905,2.381,3.81,3.81,5.715l21.43,30.478h13.811l-32.383-44.765L384.752,213.825z"/>
<polygon points="407.611,213.825 396.181,213.825 396.181,299.545 449.995,299.545 449.995,289.544 407.611,289.544 "/>
<path d="M513.333,254.78c-3.334-1.429-9.525-3.334-19.049-5.238c-9.048-1.905-14.763-4.286-17.144-6.191
	c-2.381-1.905-3.334-4.286-3.334-7.62c0-3.334,1.429-6.667,4.762-9.048c3.334-2.381,8.096-3.81,14.763-3.81
	s11.429,1.429,14.763,4.286s5.238,6.667,5.715,12.382l10.953-0.952c0-5.238-1.429-9.524-4.286-13.334
	c-2.381-3.81-6.191-7.143-11.429-9.048c-4.762-1.905-10.477-2.857-16.668-2.857c-5.715,0-10.953,0.952-15.715,2.857
	c-4.762,1.905-8.096,4.762-10.953,8.572c-2.381,3.81-3.81,7.62-3.81,11.906c0,3.81,0.952,7.62,2.857,10.477
	c1.905,3.334,5.238,5.715,9.048,8.096c3.334,1.905,8.572,3.334,16.668,5.238c8.096,1.905,12.858,3.334,15.239,4.286
	c3.81,1.429,6.191,2.857,7.62,5.238c1.429,1.905,2.381,4.286,2.381,7.143c0,2.857-0.952,5.238-2.381,7.143
	c-1.429,1.905-4.286,3.81-7.62,5.238c-3.334,1.429-7.143,1.905-11.429,1.905c-4.762,0-9.048-0.952-13.334-2.381
	c-4.286-1.429-6.667-3.81-8.572-6.667s-2.857-6.191-3.334-10.477l-10.477,0.952c0,5.715,1.905,10.953,4.762,15.239
	c2.857,4.762,7.143,8.096,12.382,10.001s11.906,3.334,19.525,3.334c6.191,0,11.429-0.952,16.668-3.334
	c4.762-2.381,8.572-5.238,11.429-9.524c2.381-3.81,3.81-8.096,3.81-12.858s-0.952-8.572-3.334-12.382
	C521.904,260.018,518.095,256.685,513.333,254.78z"/>
</svg>
