<?xml version="1.0" encoding="utf-8"?>
<!-- Generator: Adobe Illustrator 21.0.2, SVG Export Plug-In . SVG Version: 6.00 Build 0)  -->
<svg version="1.1" id="Layer_1" xmlns="http://www.w3.org/2000/svg" xmlns:xlink="http://www.w3.org/1999/xlink" x="0px" y="0px"
	 viewBox="223 172.8 117.3 297.4" style="enable-background:new 223 172.8 117.3 297.4;" xml:space="preserve">
<g>
	<path fill="#fff" d="M325.6,175.3c3.3-3.3,8.8-3.3,12.1,0c1.6,1.6,2.5,3.8,2.5,6.1c0,2.3-0.9,4.4-2.5,6.1l-94.1,134.1l94.1,134.1
		c1.6,1.6,2.5,3.8,2.5,6.1c0,2.3-0.9,4.4-2.5,6c-1.6,1.6-3.8,2.5-6.1,2.5c-2.3,0-4.4-0.9-6-2.5L225.5,327.6
		c-1.6-1.6-2.5-3.8-2.5-6.1c0-2.3,0.9-4.5,2.5-6L325.6,175.3z"/>
</g>
</svg>
