<?xml version="1.0" encoding="utf-8"?>
<!-- Generator: Adobe Illustrator 17.0.0, SVG Export Plug-In . SVG Version: 6.00 Build 0)  -->
<!DOCTYPE svg PUBLIC "-//W3C//DTD SVG 1.1//EN" "http://www.w3.org/Graphics/SVG/1.1/DTD/svg11.dtd">
<svg version="1.1" id="Layer_1" xmlns="http://www.w3.org/2000/svg" xmlns:xlink="http://www.w3.org/1999/xlink" x="0px" y="0px"
	 width="15.447px" height="23.769px" viewBox="0 0 15.447 23.769" enable-background="new 0 0 15.447 23.769" xml:space="preserve">
<g>
	<ellipse fill="#D2D2D2" cx="7.523" cy="22.632" rx="6.065" ry="1.137"/>
	<path fill="#D2D2D2" d="M7.723,20.109c0,0,7.723-4.662,7.723-12.386C15.445,3.458,11.988,0,7.723,0C3.458,0,0,3.458,0,7.723
		C-0.001,15.447,7.723,20.109,7.723,20.109z M4.633,7.724c0-1.706,1.383-3.089,3.089-3.089s3.089,1.384,3.089,3.089
		c0,1.706-1.383,3.089-3.089,3.089S4.633,9.43,4.633,7.724z"/>
</g>
</svg>
