<?xml version="1.0" encoding="utf-8"?>
<!-- Generator: Adobe Illustrator 17.0.0, SVG Export Plug-In . SVG Version: 6.00 Build 0)  -->
<!DOCTYPE svg PUBLIC "-//W3C//DTD SVG 1.1//EN" "http://www.w3.org/Graphics/SVG/1.1/DTD/svg11.dtd">
<svg version="1.1" id="Layer_1" xmlns="http://www.w3.org/2000/svg" xmlns:xlink="http://www.w3.org/1999/xlink" x="0px" y="0px"
	 width="725.672px" height="725.672px" viewBox="90.709 0 725.672 725.672" enable-background="new 90.709 0 725.672 725.672"
	 xml:space="preserve">
<g transform="translate(-91.214475,-152.15558)">
	<path d="M544.759,152.156c-200.389,0-362.836,162.447-362.836,362.836l0,0c0,200.389,162.447,362.836,362.836,362.836
		c200.389,0,362.836-162.447,362.836-362.836v0C907.596,314.603,745.148,152.156,544.759,152.156L544.759,152.156L544.759,152.156z
		 M544.757,286.99c11.778,0,21.26,9.482,21.26,21.26V556.8l92.47-92.47c8.328-8.328,21.737-8.328,30.066,0
		c8.328,8.328,8.328,21.737,0,30.066L559.877,623.071c-3.083,3.083-6.864,5.016-10.824,5.816c-1.388,0.28-2.797,0.429-4.208,0.429
		c-0.017,0-0.035-0.001-0.053-0.003c-0.013,0-0.023,0.003-0.036,0.003c-0.156,0-0.307-0.019-0.462-0.022
		c-0.564-0.01-1.127-0.028-1.689-0.083c-0.096-0.01-0.189-0.03-0.285-0.042c-0.611-0.068-1.22-0.156-1.824-0.277
		c-0.081-0.016-0.158-0.041-0.238-0.058c-0.617-0.131-1.23-0.284-1.835-0.471h-0.003c-0.661-0.203-1.312-0.442-1.954-0.711
		c-2.477-1.039-4.804-2.559-6.826-4.581L400.964,494.396c-8.328-8.328-8.328-21.737,0-30.066c8.328-8.328,21.74-8.328,30.068,0
		l92.464,92.464V308.25C523.497,296.472,532.979,286.99,544.757,286.99L544.757,286.99z M422.493,700.473h244.531
		c11.778,0,21.26,9.482,21.26,21.26c0,11.778-9.482,21.26-21.26,21.26H422.493c-11.778,0-21.26-9.482-21.26-21.26
		C401.233,709.955,410.715,700.473,422.493,700.473z"/>
</g>
</svg>
