<?xml version="1.0" encoding="utf-8"?>
<!-- Generator: Adobe Illustrator 22.1.0, SVG Export Plug-In . SVG Version: 6.00 Build 0)  -->
<svg version="1.1" id="Слой_1" xmlns="http://www.w3.org/2000/svg" xmlns:xlink="http://www.w3.org/1999/xlink" x="0px" y="0px"
	 viewBox="0 0 134 94" style="enable-background:new 0 0 134 94;" xml:space="preserve">
<g>
	<g>
		<circle cx="11" cy="11" r="11"/>
	</g>
	<g>
		<circle cx="11" cy="47" r="11"/>
	</g>
	<g>
		<circle cx="11" cy="83" r="11"/>
	</g>
	<path d="M123,22H43c-6,0-11-4.9-11-11v0c0-6,4.9-11,11-11h80c6,0,11,4.9,11,11v0C134,17.1,129.1,22,123,22z"/>
	<path d="M123,58H43c-6,0-11-4.9-11-11v0c0-6,4.9-11,11-11h80c6,0,11,4.9,11,11v0C134,53.1,129.1,58,123,58z"/>
	<path d="M123,94H43c-6,0-11-4.9-11-11v0c0-6,4.9-11,11-11h80c6,0,11,4.9,11,11v0C134,89.1,129.1,94,123,94z"/>
</g>
</svg>
