<?xml version="1.0" encoding="utf-8"?>
<!-- Generator: Adobe Illustrator 21.0.2, SVG Export Plug-In . SVG Version: 6.00 Build 0)  -->
<svg version="1.1" id="Layer_1" xmlns="http://www.w3.org/2000/svg" xmlns:xlink="http://www.w3.org/1999/xlink" x="0px" y="0px"
	 viewBox="266.2 0 309.5 476.2" style="enable-background:new 266.2 0 309.5 476.2;" xml:space="preserve">
<g>
	<ellipse cx="417" cy="453.4" rx="121.5" ry="22.8"/>
	<path d="M421,402.9c0,0,154.7-93.4,154.7-248.2C575.7,69.3,506.4,0,421,0S266.2,69.3,266.2,154.7C266.2,309.5,421,402.9,421,402.9z
		 M359,154.7c0-34.2,27.7-61.9,61.9-61.9s61.9,27.7,61.9,61.9s-27.7,61.9-61.9,61.9S359,188.9,359,154.7z"/>
</g>
</svg>
