<?xml version="1.0" encoding="utf-8"?>
<!-- Generator: Adobe Illustrator 17.0.0, SVG Export Plug-In . SVG Version: 6.00 Build 0)  -->
<!DOCTYPE svg PUBLIC "-//W3C//DTD SVG 1.1//EN" "http://www.w3.org/Graphics/SVG/1.1/DTD/svg11.dtd">
<svg version="1.1" id="Layer_1" xmlns="http://www.w3.org/2000/svg" xmlns:xlink="http://www.w3.org/1999/xlink" x="0px" y="0px"
	 width="10.303px" height="17.317px" viewBox="0 0 10.303 17.317" enable-background="new 0 0 10.303 17.317" xml:space="preserve">
<path fill="#C1C1C1" d="M5.547,9.753c0.607-0.607,0.607-1.583,0-2.191C3.805,5.822,2.09,4.107,0.35,2.391
	c-0.529-0.5-0.423-1.16,0.079-1.741l0.264-0.237C1.326-0.219,2.197-0.088,2.83,0.546l7.017,7.017c0.608,0.608,0.608,1.584,0,2.191
	L2.83,16.771c-0.633,0.633-1.504,0.765-2.137,0.132l-0.264-0.263c-0.502-0.555-0.607-1.215-0.079-1.716
	C2.091,13.209,3.805,11.467,5.547,9.753z"/>
</svg>
