<?xml version="1.0" encoding="utf-8"?>
<!-- Generator: Adobe Illustrator 19.2.0, SVG Export Plug-In . SVG Version: 6.00 Build 0)  -->
<svg version="1.1" id="svg2" xmlns="http://www.w3.org/2000/svg" xmlns:xlink="http://www.w3.org/1999/xlink" x="0px" y="0px"
	 viewBox="0 0 500 500" style="enable-background:new 0 0 500 500;" xml:space="preserve">
<style type="text/css">
	.st0{fill:#507299;}
</style>
<g id="layer1" transform="translate(0,-552.36218)">
	<g id="layer1-9" transform="translate(-549.00515,80.294372)">
	</g>
	<g id="layer1-6" transform="translate(-575.71429,39.999999)">
	</g>
	<g id="layer1-0" transform="translate(22.821431,485.03569)">
	</g>
</g>
<path class="st0" d="M250,0C111.9,0,0,111.9,0,250s111.9,250,250,250s250-111.9,250-250S388.1,0,250,0z M358.7,267.6
	c15.4,16.2,31.6,32.6,47.4,50.5c4.7,5.3,1.8,13.4,0.5,15.7c-1,1.7-5.3,6.2-8.3,6.2c-10.7,0.1-10.8,0-55.8,0c-6.7,0-9.3-1.9-12.9-5.7
	c-15.6-16.4-13.7-14.4-30.8-32.7c-2.2-2.4-6.6-5.4-10.9-3.5c-3.6,1.6-10.1,4-10.1,10.6v23c0,4.2-6.5,7.3-10.5,7.3h-30.6
	c-14.4,0-26.9-3.5-33.8-6.8c-29.8-14.5-47.5-34.6-66.9-68.2c-16.5-28.6-30.9-56.9-45.1-86.4c-1.6-3.3-2.7-10.6,9.1-10.6
	c12.5,0,24.2-0.3,43.2-0.3c5.6,0,9.1,1.1,11.4,2.8s3.5,4,4.6,6.1c23.6,44,23.7,46.7,40.6,68.5c1.6,2,3.9,2.4,5.6,2.4
	c2.1,0,4-0.3,5.7-1.7c3.4-2.8,4.4-5.7,4.4-9.9v-44.5c0-5.1-3.5-12.6-7.3-15c-4-2.3-10.5-4.6-10.3-7.4c0.2-3.1,7.4-8.3,20.2-8.3
	c15.3,0,26.2,0,43.2-0.1l0,0c3.7,0,8.5,0.6,11.5,2.7c2.2,1.5,5.2,3.3,5.2,10.3c0.1,22.8-0.2,42.6,0.2,65.9c0.4,4.8,3.6,6.9,6.6,6.9
	c3,0,6.4-1.9,8.9-4.4c13.8-13.6,29.7-46.2,39.5-67.5c3.6-8,9.5-7.5,16.1-7.5c22.2,0,31.2,0.3,52,0.4c3.8,0,7.1,3.2,8.2,5.6
	c0.9,2,1.6,7.8-3.5,16.1c-15.6,25.3-29.9,45.7-47.2,69.7c-1.1,1.5-2.1,3.3-2.1,5.2C356.6,264.7,357.5,266.4,358.7,267.6z"/>
</svg>
