<?xml version="1.0" encoding="utf-8"?>
<!-- Generator: Adobe Illustrator 17.0.0, SVG Export Plug-In . SVG Version: 6.00 Build 0)  -->
<!DOCTYPE svg PUBLIC "-//W3C//DTD SVG 1.1//EN" "http://www.w3.org/Graphics/SVG/1.1/DTD/svg11.dtd">
<svg version="1.1" id="Layer_2" xmlns="http://www.w3.org/2000/svg" xmlns:xlink="http://www.w3.org/1999/xlink" x="0px" y="0px"
	 width="19.963px" height="13.308px" viewBox="0 0 19.963 13.308" enable-background="new 0 0 19.963 13.308" xml:space="preserve">
<path fill="#D2D2D2" d="M0.665,0h1.331c0.368,0,0.665,0.298,0.665,0.665v1.331c0,0.368-0.298,0.665-0.665,0.665H0.665
	C0.298,2.662,0,2.364,0,1.996V0.665C0,0.298,0.298,0,0.665,0"/>
<path fill="#D2D2D2" d="M0.665,5.323h1.331c0.368,0,0.665,0.298,0.665,0.665V7.32c0,0.368-0.298,0.665-0.665,0.665H0.665
	C0.298,7.985,0,7.687,0,7.32V5.989C0,5.621,0.298,5.323,0.665,5.323"/>
<path fill="#D2D2D2" d="M0.665,10.647h1.331c0.368,0,0.665,0.298,0.665,0.665v1.331c0,0.368-0.298,0.665-0.665,0.665H0.665
	C0.298,13.308,0,13.011,0,12.643v-1.331C0,10.945,0.298,10.647,0.665,10.647"/>
<path fill="#D2D2D2" d="M5.989,0h13.308c0.368,0,0.665,0.298,0.665,0.665v1.331c0,0.368-0.298,0.665-0.665,0.665H5.989
	c-0.368,0-0.665-0.298-0.665-0.665V0.665C5.323,0.298,5.621,0,5.989,0"/>
<path fill="#D2D2D2" d="M5.989,5.323h13.308c0.368,0,0.665,0.298,0.665,0.665V7.32c0,0.368-0.298,0.665-0.665,0.665H5.989
	c-0.368,0-0.665-0.298-0.665-0.665V5.989C5.323,5.621,5.621,5.323,5.989,5.323"/>
<path fill="#D2D2D2" d="M5.989,10.647h13.308c0.368,0,0.665,0.298,0.665,0.665v1.331c0,0.368-0.298,0.665-0.665,0.665H5.989
	c-0.368,0-0.665-0.298-0.665-0.665v-1.331C5.323,10.945,5.621,10.647,5.989,10.647"/>
</svg>
