<?xml version="1.0" encoding="utf-8"?>
<!-- Generator: Adobe Illustrator 17.0.0, SVG Export Plug-In . SVG Version: 6.00 Build 0)  -->
<!DOCTYPE svg PUBLIC "-//W3C//DTD SVG 1.1//EN" "http://www.w3.org/Graphics/SVG/1.1/DTD/svg11.dtd">
<svg version="1.1" xmlns="http://www.w3.org/2000/svg" xmlns:xlink="http://www.w3.org/1999/xlink" x="0px" y="0px"
	 width="22.506px" height="20.523px" viewBox="0 0 22.506 20.523" enable-background="new 0 0 22.506 20.523" xml:space="preserve">
<g id="Layer_1" display="none">
	<g display="inline">
		<defs>
			<rect id="SVGID_1_" x="-27.897" y="-25.439" width="78.3" height="71.4"/>
		</defs>
		<clipPath id="SVGID_2_">
			<use xlink:href="#SVGID_1_"  overflow="visible"/>
		</clipPath>
	</g>
</g>
<g id="Layer_2">
	<path fill="#D2D2D2" d="M21.644,3.737h-3.995V0.862C17.648,0.386,17.262,0,16.786,0H2.731C1.222,0,0,1.222,0,2.731v15.061
		c0,1.508,1.222,2.731,2.731,2.731h18.913c0.476,0,0.862-0.386,0.862-0.862V4.599C22.506,4.123,22.12,3.737,21.644,3.737
		 M1.696,2.731c0-0.556,0.45-1.006,1.006-1.006h13.222v2.012H2.731C2.175,3.752,1.712,3.315,1.696,2.76
		C1.696,2.75,1.696,2.74,1.696,2.731 M16.987,13.941c-1.111,0-2.012-0.901-2.012-2.012s0.901-2.012,2.012-2.012
		s2.012,0.901,2.012,2.012S18.099,13.941,16.987,13.941"/>
</g>
</svg>
